[18:35:33] gtkgui: HandBrake 1.0.7 (1970010100) - Linux x86_64 - https://handbrake.fr
[18:35:33] hb_init: starting libhb thread
[18:35:33] hb_init: starting libhb thread
[18:35:33] hb_init: starting libhb thread
