{
    "Preferences": {
        "AddCC": false,
        "AutoScan": false,
        "EncodeLogLocation": false,
        "ExportDirectory": "/home/dejanr",
        "HideAdvancedVideoSettings": true,
        "LogLongevity": "immortal",
        "LoggingLevel": "1",
        "MinTitleDuration": 10,
        "PreferredLanguage": "und",
        "RemoveFinishedJobs": false,
        "SrtDir": "/home/dejanr/videos",
        "UseM4v": true,
        "VideoQualityGranularity": "1",
        "WhenComplete": "notify",
        "allow_tweaks": false,
        "auto_name": true,
        "auto_name_template": "{source}",
        "check_updates": "weekly",
        "default_source": "/dev/dvd",
        "destination_dir": "/home/dejanr/videos",
        "hbfd": false,
        "hbfd_feature": false,
        "last_update_check": 0,
        "live_duration": 15,
        "preview_count": 10,
        "preview_show_crop": false,
        "preview_x": -1,
        "preview_y": -1,
        "reduce_hd_preview": true,
        "show_presets": true,
        "update_skip_version": 0,
        "use_dvdnav": true,
        "version": "0.1",
        "window_height": 1059,
        "window_width": 640
    }
}